{
  "providerName": "testProvider",
  "mappings": [
    ["UUID", "_id", "string"],
    ["VIN", "vin", "string"],
    ["Make", "make", "string"],
    ["Model", "model", "string"],
    ["Mileage", "milleage", "number"],
    ["Year", "year", "number"],
    ["Price", "price", "number"],
    ["Zip Code", "zipCode", "string"],
    ["Create Date", "createDate", "date"],
    ["Update Date", "updateDate", "date"]
  ]
}
